%YAML 1.1
%TAG !u! tag:unity3d.com,2011:
--- !u!1 &8776871556005685240
GameObject:
  m_ObjectHideFlags: 0
  m_CorrespondingSourceObject: {fileID: 0}
  m_PrefabInstance: {fileID: 0}
  m_PrefabAsset: {fileID: 0}
  serializedVersion: 6
  m_Component:
  - component: {fileID: 8776871556005854168}
  - component: {fileID: 8776871556002429944}
  - component: {fileID: 8776871556003428664}
  - component: {fileID: 8776871555999223800}
  m_Layer: 12
  m_Name: fi_vil_wall_stone02_win1_1mX1,5m_woodenbeam (1)
  m_TagString: Untagged
  m_Icon: {fileID: 0}
  m_NavMeshLayer: 0
  m_StaticEditorFlags: 0
  m_IsActive: 1
--- !u!4 &8776871556005854168
Transform:
  m_ObjectHideFlags: 0
  m_CorrespondingSourceObject: {fileID: 0}
  m_PrefabInstance: {fileID: 0}
  m_PrefabAsset: {fileID: 0}
  m_GameObject: {fileID: 8776871556005685240}
  m_LocalRotation: {x: -0, y: -0, z: -0, w: 1}
  m_LocalPosition: {x: 6.25, y: 0, z: 5}
  m_LocalScale: {x: 1, y: 1, z: 1}
  m_Children:
  - {fileID: 5114204483792559431}
  - {fileID: 5066778038264762821}
  m_Father: {fileID: 0}
  m_RootOrder: 0
  m_LocalEulerAnglesHint: {x: 0, y: 0, z: 0}
--- !u!33 &8776871556002429944
MeshFilter:
  m_ObjectHideFlags: 0
  m_CorrespondingSourceObject: {fileID: 0}
  m_PrefabInstance: {fileID: 0}
  m_PrefabAsset: {fileID: 0}
  m_GameObject: {fileID: 8776871556005685240}
  m_Mesh: {fileID: 4300000, guid: 9563dbc94cc529d44bee3ce487d78a4d, type: 3}
--- !u!23 &8776871556003428664
MeshRenderer:
  m_ObjectHideFlags: 0
  m_CorrespondingSourceObject: {fileID: 0}
  m_PrefabInstance: {fileID: 0}
  m_PrefabAsset: {fileID: 0}
  m_GameObject: {fileID: 8776871556005685240}
  m_Enabled: 1
  m_CastShadows: 1
  m_ReceiveShadows: 1
  m_DynamicOccludee: 1
  m_MotionVectors: 1
  m_LightProbeUsage: 0
  m_ReflectionProbeUsage: 1
  m_RayTracingMode: 2
  m_RenderingLayerMask: 1
  m_RendererPriority: 0
  m_Materials:
  - {fileID: 2100000, guid: 2c4401510f3cbe944a203a24e7eb59b0, type: 2}
  m_StaticBatchInfo:
    firstSubMesh: 0
    subMeshCount: 0
  m_StaticBatchRoot: {fileID: 0}
  m_ProbeAnchor: {fileID: 0}
  m_LightProbeVolumeOverride: {fileID: 0}
  m_ScaleInLightmap: 1
  m_ReceiveGI: 1
  m_PreserveUVs: 0
  m_IgnoreNormalsForChartDetection: 0
  m_ImportantGI: 0
  m_StitchLightmapSeams: 1
  m_SelectedEditorRenderState: 3
  m_MinimumChartSize: 4
  m_AutoUVMaxDistance: 0.5
  m_AutoUVMaxAngle: 89
  m_LightmapParameters: {fileID: 0}
  m_SortingLayerID: 0
  m_SortingLayer: 0
  m_SortingOrder: 0
--- !u!65 &8776871555999223800
BoxCollider:
  m_ObjectHideFlags: 0
  m_CorrespondingSourceObject: {fileID: 0}
  m_PrefabInstance: {fileID: 0}
  m_PrefabAsset: {fileID: 0}
  m_GameObject: {fileID: 8776871556005685240}
  m_Material: {fileID: 0}
  m_IsTrigger: 0
  m_Enabled: 1
  serializedVersion: 2
  m_Size: {x: 0.14996338, y: 3, z: 2.4999924}
  m_Center: {x: 0.07498169, y: 1.5, z: -0.0000038146973}
--- !u!1001 &5066778038264630085
PrefabInstance:
  m_ObjectHideFlags: 0
  serializedVersion: 2
  m_Modification:
    m_TransformParent: {fileID: 8776871556005854168}
    m_Modifications:
    - target: {fileID: 100000, guid: 5cd5c3f13c1ac0a408eb4eef3166fc7f, type: 3}
      propertyPath: m_Name
      value: fi_vil_shutter_large03_left
      objectReference: {fileID: 0}
    - target: {fileID: 400000, guid: 5cd5c3f13c1ac0a408eb4eef3166fc7f, type: 3}
      propertyPath: m_RootOrder
      value: 1
      objectReference: {fileID: 0}
    - target: {fileID: 400000, guid: 5cd5c3f13c1ac0a408eb4eef3166fc7f, type: 3}
      propertyPath: m_LocalPosition.x
      value: 0.174963
      objectReference: {fileID: 0}
    - target: {fileID: 400000, guid: 5cd5c3f13c1ac0a408eb4eef3166fc7f, type: 3}
      propertyPath: m_LocalPosition.y
      value: -0.002
      objectReference: {fileID: 0}
    - target: {fileID: 400000, guid: 5cd5c3f13c1ac0a408eb4eef3166fc7f, type: 3}
      propertyPath: m_LocalPosition.z
      value: 0.79
      objectReference: {fileID: 0}
    - target: {fileID: 400000, guid: 5cd5c3f13c1ac0a408eb4eef3166fc7f, type: 3}
      propertyPath: m_LocalRotation.w
      value: 0.9238797
      objectReference: {fileID: 0}
    - target: {fileID: 400000, guid: 5cd5c3f13c1ac0a408eb4eef3166fc7f, type: 3}
      propertyPath: m_LocalRotation.x
      value: -0
      objectReference: {fileID: 0}
    - target: {fileID: 400000, guid: 5cd5c3f13c1ac0a408eb4eef3166fc7f, type: 3}
      propertyPath: m_LocalRotation.y
      value: 0.3826833
      objectReference: {fileID: 0}
    - target: {fileID: 400000, guid: 5cd5c3f13c1ac0a408eb4eef3166fc7f, type: 3}
      propertyPath: m_LocalRotation.z
      value: -0
      objectReference: {fileID: 0}
    - target: {fileID: 400000, guid: 5cd5c3f13c1ac0a408eb4eef3166fc7f, type: 3}
      propertyPath: m_LocalEulerAnglesHint.x
      value: 0
      objectReference: {fileID: 0}
    - target: {fileID: 400000, guid: 5cd5c3f13c1ac0a408eb4eef3166fc7f, type: 3}
      propertyPath: m_LocalEulerAnglesHint.y
      value: 45.000004
      objectReference: {fileID: 0}
    - target: {fileID: 400000, guid: 5cd5c3f13c1ac0a408eb4eef3166fc7f, type: 3}
      propertyPath: m_LocalEulerAnglesHint.z
      value: 0
      objectReference: {fileID: 0}
    m_RemovedComponents: []
  m_SourcePrefab: {fileID: 100100000, guid: 5cd5c3f13c1ac0a408eb4eef3166fc7f, type: 3}
--- !u!4 &5066778038264762821 stripped
Transform:
  m_CorrespondingSourceObject: {fileID: 400000, guid: 5cd5c3f13c1ac0a408eb4eef3166fc7f,
    type: 3}
  m_PrefabInstance: {fileID: 5066778038264630085}
  m_PrefabAsset: {fileID: 0}
--- !u!1001 &5114204483792684999
PrefabInstance:
  m_ObjectHideFlags: 0
  serializedVersion: 2
  m_Modification:
    m_TransformParent: {fileID: 8776871556005854168}
    m_Modifications:
    - target: {fileID: 100000, guid: 3f929f738c160fd4197292bc6091b25e, type: 3}
      propertyPath: m_Name
      value: fi_vil_shutter_large03_right
      objectReference: {fileID: 0}
    - target: {fileID: 400000, guid: 3f929f738c160fd4197292bc6091b25e, type: 3}
      propertyPath: m_RootOrder
      value: 0
      objectReference: {fileID: 0}
    - target: {fileID: 400000, guid: 3f929f738c160fd4197292bc6091b25e, type: 3}
      propertyPath: m_LocalPosition.x
      value: 0.15869999
      objectReference: {fileID: 0}
    - target: {fileID: 400000, guid: 3f929f738c160fd4197292bc6091b25e, type: 3}
      propertyPath: m_LocalPosition.y
      value: -0.002
      objectReference: {fileID: 0}
    - target: {fileID: 400000, guid: 3f929f738c160fd4197292bc6091b25e, type: 3}
      propertyPath: m_LocalPosition.z
      value: -0.7875552
      objectReference: {fileID: 0}
    - target: {fileID: 400000, guid: 3f929f738c160fd4197292bc6091b25e, type: 3}
      propertyPath: m_LocalRotation.w
      value: 0.86602616
      objectReference: {fileID: 0}
    - target: {fileID: 400000, guid: 3f929f738c160fd4197292bc6091b25e, type: 3}
      propertyPath: m_LocalRotation.x
      value: -0
      objectReference: {fileID: 0}
    - target: {fileID: 400000, guid: 3f929f738c160fd4197292bc6091b25e, type: 3}
      propertyPath: m_LocalRotation.y
      value: -0.4999988
      objectReference: {fileID: 0}
    - target: {fileID: 400000, guid: 3f929f738c160fd4197292bc6091b25e, type: 3}
      propertyPath: m_LocalRotation.z
      value: -0
      objectReference: {fileID: 0}
    - target: {fileID: 400000, guid: 3f929f738c160fd4197292bc6091b25e, type: 3}
      propertyPath: m_LocalEulerAnglesHint.x
      value: 0
      objectReference: {fileID: 0}
    - target: {fileID: 400000, guid: 3f929f738c160fd4197292bc6091b25e, type: 3}
      propertyPath: m_LocalEulerAnglesHint.y
      value: -105.00001
      objectReference: {fileID: 0}
    - target: {fileID: 400000, guid: 3f929f738c160fd4197292bc6091b25e, type: 3}
      propertyPath: m_LocalEulerAnglesHint.z
      value: 0
      objectReference: {fileID: 0}
    m_RemovedComponents: []
  m_SourcePrefab: {fileID: 100100000, guid: 3f929f738c160fd4197292bc6091b25e, type: 3}
--- !u!4 &5114204483792559431 stripped
Transform:
  m_CorrespondingSourceObject: {fileID: 400000, guid: 3f929f738c160fd4197292bc6091b25e,
    type: 3}
  m_PrefabInstance: {fileID: 5114204483792684999}
  m_PrefabAsset: {fileID: 0}
