%YAML 1.1
%TAG !u! tag:unity3d.com,2011:
--- !u!1 &1532064067099016944
GameObject:
  m_ObjectHideFlags: 0
  m_CorrespondingSourceObject: {fileID: 0}
  m_PrefabInstance: {fileID: 0}
  m_PrefabAsset: {fileID: 0}
  serializedVersion: 6
  m_Component:
  - component: {fileID: 71504293454943830}
  m_Layer: 0
  m_Name: IDLE
  m_TagString: WORKING_PLACE
  m_Icon: {fileID: 0}
  m_NavMeshLayer: 0
  m_StaticEditorFlags: 0
  m_IsActive: 1
--- !u!4 &71504293454943830
Transform:
  m_ObjectHideFlags: 0
  m_CorrespondingSourceObject: {fileID: 0}
  m_PrefabInstance: {fileID: 0}
  m_PrefabAsset: {fileID: 0}
  m_GameObject: {fileID: 1532064067099016944}
  m_LocalRotation: {x: -0, y: -0, z: -0, w: 1}
  m_LocalPosition: {x: 0, y: 0, z: 0}
  m_LocalScale: {x: 1, y: 1, z: 1}
  m_Children:
  - {fileID: 9170550462983783208}
  m_Father: {fileID: 0}
  m_RootOrder: 0
  m_LocalEulerAnglesHint: {x: 0, y: 0, z: 0}
--- !u!1001 &8705157309762643139
PrefabInstance:
  m_ObjectHideFlags: 0
  serializedVersion: 2
  m_Modification:
    m_TransformParent: {fileID: 71504293454943830}
    m_Modifications:
    - target: {fileID: -8679921383154817045, guid: b5008bd05249ff04bbb892a1ec337bef,
        type: 3}
      propertyPath: m_RootOrder
      value: 0
      objectReference: {fileID: 0}
    - target: {fileID: -8679921383154817045, guid: b5008bd05249ff04bbb892a1ec337bef,
        type: 3}
      propertyPath: m_LocalPosition.x
      value: 0
      objectReference: {fileID: 0}
    - target: {fileID: -8679921383154817045, guid: b5008bd05249ff04bbb892a1ec337bef,
        type: 3}
      propertyPath: m_LocalPosition.y
      value: 0
      objectReference: {fileID: 0}
    - target: {fileID: -8679921383154817045, guid: b5008bd05249ff04bbb892a1ec337bef,
        type: 3}
      propertyPath: m_LocalPosition.z
      value: 0
      objectReference: {fileID: 0}
    - target: {fileID: -8679921383154817045, guid: b5008bd05249ff04bbb892a1ec337bef,
        type: 3}
      propertyPath: m_LocalRotation.w
      value: 0.70710677
      objectReference: {fileID: 0}
    - target: {fileID: -8679921383154817045, guid: b5008bd05249ff04bbb892a1ec337bef,
        type: 3}
      propertyPath: m_LocalRotation.x
      value: 0
      objectReference: {fileID: 0}
    - target: {fileID: -8679921383154817045, guid: b5008bd05249ff04bbb892a1ec337bef,
        type: 3}
      propertyPath: m_LocalRotation.y
      value: -0.70710677
      objectReference: {fileID: 0}
    - target: {fileID: -8679921383154817045, guid: b5008bd05249ff04bbb892a1ec337bef,
        type: 3}
      propertyPath: m_LocalRotation.z
      value: 0
      objectReference: {fileID: 0}
    - target: {fileID: -8679921383154817045, guid: b5008bd05249ff04bbb892a1ec337bef,
        type: 3}
      propertyPath: m_LocalEulerAnglesHint.x
      value: 0
      objectReference: {fileID: 0}
    - target: {fileID: -8679921383154817045, guid: b5008bd05249ff04bbb892a1ec337bef,
        type: 3}
      propertyPath: m_LocalEulerAnglesHint.y
      value: 0
      objectReference: {fileID: 0}
    - target: {fileID: -8679921383154817045, guid: b5008bd05249ff04bbb892a1ec337bef,
        type: 3}
      propertyPath: m_LocalEulerAnglesHint.z
      value: 0
      objectReference: {fileID: 0}
    - target: {fileID: 919132149155446097, guid: b5008bd05249ff04bbb892a1ec337bef,
        type: 3}
      propertyPath: m_Name
      value: UMA Male Mixamo Rig
      objectReference: {fileID: 0}
    - target: {fileID: 919132149155446097, guid: b5008bd05249ff04bbb892a1ec337bef,
        type: 3}
      propertyPath: m_TagString
      value: DUMMY
      objectReference: {fileID: 0}
    - target: {fileID: 3986874158663254069, guid: b5008bd05249ff04bbb892a1ec337bef,
        type: 3}
      propertyPath: m_LocalRotation.w
      value: 0.49991292
      objectReference: {fileID: 0}
    - target: {fileID: 3986874158663254069, guid: b5008bd05249ff04bbb892a1ec337bef,
        type: 3}
      propertyPath: m_LocalRotation.x
      value: -0.5000874
      objectReference: {fileID: 0}
    - target: {fileID: 3986874158663254069, guid: b5008bd05249ff04bbb892a1ec337bef,
        type: 3}
      propertyPath: m_LocalRotation.y
      value: 0.49991262
      objectReference: {fileID: 0}
    - target: {fileID: 3986874158663254069, guid: b5008bd05249ff04bbb892a1ec337bef,
        type: 3}
      propertyPath: m_LocalRotation.z
      value: 0.50008714
      objectReference: {fileID: 0}
    - target: {fileID: 3986874158663254069, guid: b5008bd05249ff04bbb892a1ec337bef,
        type: 3}
      propertyPath: m_LocalEulerAnglesHint.x
      value: -89.98
      objectReference: {fileID: 0}
    - target: {fileID: 3986874158663254069, guid: b5008bd05249ff04bbb892a1ec337bef,
        type: 3}
      propertyPath: m_LocalEulerAnglesHint.y
      value: -90
      objectReference: {fileID: 0}
    - target: {fileID: 3986874158663254069, guid: b5008bd05249ff04bbb892a1ec337bef,
        type: 3}
      propertyPath: m_LocalEulerAnglesHint.z
      value: 179.99998
      objectReference: {fileID: 0}
    - target: {fileID: 5249300896849555191, guid: b5008bd05249ff04bbb892a1ec337bef,
        type: 3}
      propertyPath: m_LocalRotation.w
      value: 0.49991292
      objectReference: {fileID: 0}
    - target: {fileID: 5249300896849555191, guid: b5008bd05249ff04bbb892a1ec337bef,
        type: 3}
      propertyPath: m_LocalRotation.x
      value: -0.5000874
      objectReference: {fileID: 0}
    - target: {fileID: 5249300896849555191, guid: b5008bd05249ff04bbb892a1ec337bef,
        type: 3}
      propertyPath: m_LocalRotation.y
      value: 0.49991262
      objectReference: {fileID: 0}
    - target: {fileID: 5249300896849555191, guid: b5008bd05249ff04bbb892a1ec337bef,
        type: 3}
      propertyPath: m_LocalRotation.z
      value: 0.50008714
      objectReference: {fileID: 0}
    - target: {fileID: 5249300896849555191, guid: b5008bd05249ff04bbb892a1ec337bef,
        type: 3}
      propertyPath: m_LocalEulerAnglesHint.x
      value: -89.98
      objectReference: {fileID: 0}
    - target: {fileID: 5249300896849555191, guid: b5008bd05249ff04bbb892a1ec337bef,
        type: 3}
      propertyPath: m_LocalEulerAnglesHint.y
      value: -90
      objectReference: {fileID: 0}
    - target: {fileID: 5249300896849555191, guid: b5008bd05249ff04bbb892a1ec337bef,
        type: 3}
      propertyPath: m_LocalEulerAnglesHint.z
      value: 179.99998
      objectReference: {fileID: 0}
    m_RemovedComponents: []
  m_SourcePrefab: {fileID: 100100000, guid: b5008bd05249ff04bbb892a1ec337bef, type: 3}
--- !u!4 &9170550462983783208 stripped
Transform:
  m_CorrespondingSourceObject: {fileID: -8679921383154817045, guid: b5008bd05249ff04bbb892a1ec337bef,
    type: 3}
  m_PrefabInstance: {fileID: 8705157309762643139}
  m_PrefabAsset: {fileID: 0}
