%YAML 1.1
%TAG !u! tag:unity3d.com,2011:
--- !u!1 &100020
GameObject:
  m_ObjectHideFlags: 0
  m_CorrespondingSourceObject: {fileID: 0}
  m_PrefabInstance: {fileID: 0}
  m_PrefabAsset: {fileID: 0}
  serializedVersion: 6
  m_Component:
  - component: {fileID: 400020}
  - component: {fileID: 5886176654429576419}
  - component: {fileID: 1127515075279835602}
  m_Layer: 12
  m_Name: ManagerStand
  m_TagString: Untagged
  m_Icon: {fileID: 0}
  m_NavMeshLayer: 0
  m_StaticEditorFlags: 0
  m_IsActive: 1
--- !u!4 &400020
Transform:
  m_ObjectHideFlags: 0
  m_CorrespondingSourceObject: {fileID: 0}
  m_PrefabInstance: {fileID: 0}
  m_PrefabAsset: {fileID: 0}
  m_GameObject: {fileID: 100020}
  m_LocalRotation: {x: 0, y: -0, z: -0, w: 1}
  m_LocalPosition: {x: -0, y: 0, z: 0}
  m_LocalScale: {x: 1, y: 1, z: 1}
  m_Children:
  - {fileID: 8084121515251834746}
  m_Father: {fileID: 0}
  m_RootOrder: 0
  m_LocalEulerAnglesHint: {x: 0, y: 0, z: 0}
--- !u!135 &5886176654429576419
SphereCollider:
  m_ObjectHideFlags: 0
  m_CorrespondingSourceObject: {fileID: 0}
  m_PrefabInstance: {fileID: 0}
  m_PrefabAsset: {fileID: 0}
  m_GameObject: {fileID: 100020}
  m_Material: {fileID: 0}
  m_IsTrigger: 1
  m_Enabled: 1
  serializedVersion: 2
  m_Radius: 1
  m_Center: {x: 0, y: 1, z: 0}
--- !u!114 &1127515075279835602
MonoBehaviour:
  m_ObjectHideFlags: 0
  m_CorrespondingSourceObject: {fileID: 0}
  m_PrefabInstance: {fileID: 0}
  m_PrefabAsset: {fileID: 0}
  m_GameObject: {fileID: 100020}
  m_Enabled: 1
  m_EditorHideFlags: 0
  m_Script: {fileID: 11500000, guid: ed5f79e2423095641aa85ad2fd976435, type: 3}
  m_Name: 
  m_EditorClassIdentifier: 
--- !u!1001 &8084121515251697134
PrefabInstance:
  m_ObjectHideFlags: 0
  serializedVersion: 2
  m_Modification:
    m_TransformParent: {fileID: 400020}
    m_Modifications:
    - target: {fileID: 100020, guid: 5c739b3af78f2b245bdc578a2a88e623, type: 3}
      propertyPath: m_Name
      value: fi_vil_library_bookstand_used01
      objectReference: {fileID: 0}
    - target: {fileID: 400020, guid: 5c739b3af78f2b245bdc578a2a88e623, type: 3}
      propertyPath: m_RootOrder
      value: 0
      objectReference: {fileID: 0}
    - target: {fileID: 400020, guid: 5c739b3af78f2b245bdc578a2a88e623, type: 3}
      propertyPath: m_LocalPosition.x
      value: 0
      objectReference: {fileID: 0}
    - target: {fileID: 400020, guid: 5c739b3af78f2b245bdc578a2a88e623, type: 3}
      propertyPath: m_LocalPosition.y
      value: 0
      objectReference: {fileID: 0}
    - target: {fileID: 400020, guid: 5c739b3af78f2b245bdc578a2a88e623, type: 3}
      propertyPath: m_LocalPosition.z
      value: 0
      objectReference: {fileID: 0}
    - target: {fileID: 400020, guid: 5c739b3af78f2b245bdc578a2a88e623, type: 3}
      propertyPath: m_LocalRotation.w
      value: 1
      objectReference: {fileID: 0}
    - target: {fileID: 400020, guid: 5c739b3af78f2b245bdc578a2a88e623, type: 3}
      propertyPath: m_LocalRotation.x
      value: -0
      objectReference: {fileID: 0}
    - target: {fileID: 400020, guid: 5c739b3af78f2b245bdc578a2a88e623, type: 3}
      propertyPath: m_LocalRotation.y
      value: -0
      objectReference: {fileID: 0}
    - target: {fileID: 400020, guid: 5c739b3af78f2b245bdc578a2a88e623, type: 3}
      propertyPath: m_LocalRotation.z
      value: -0
      objectReference: {fileID: 0}
    - target: {fileID: 400020, guid: 5c739b3af78f2b245bdc578a2a88e623, type: 3}
      propertyPath: m_LocalEulerAnglesHint.x
      value: 0
      objectReference: {fileID: 0}
    - target: {fileID: 400020, guid: 5c739b3af78f2b245bdc578a2a88e623, type: 3}
      propertyPath: m_LocalEulerAnglesHint.y
      value: 0
      objectReference: {fileID: 0}
    - target: {fileID: 400020, guid: 5c739b3af78f2b245bdc578a2a88e623, type: 3}
      propertyPath: m_LocalEulerAnglesHint.z
      value: 0
      objectReference: {fileID: 0}
    m_RemovedComponents: []
  m_SourcePrefab: {fileID: 100100000, guid: 5c739b3af78f2b245bdc578a2a88e623, type: 3}
--- !u!4 &8084121515251834746 stripped
Transform:
  m_CorrespondingSourceObject: {fileID: 400020, guid: 5c739b3af78f2b245bdc578a2a88e623,
    type: 3}
  m_PrefabInstance: {fileID: 8084121515251697134}
  m_PrefabAsset: {fileID: 0}
