%YAML 1.1
%TAG !u! tag:unity3d.com,2011:
--- !u!1 &528450597540202528
GameObject:
  m_ObjectHideFlags: 0
  m_CorrespondingSourceObject: {fileID: 0}
  m_PrefabInstance: {fileID: 0}
  m_PrefabAsset: {fileID: 0}
  serializedVersion: 6
  m_Component:
  - component: {fileID: 1623776688602675888}
  m_Layer: 0
  m_Name: Food Sign
  m_TagString: Untagged
  m_Icon: {fileID: 0}
  m_NavMeshLayer: 0
  m_StaticEditorFlags: 0
  m_IsActive: 1
--- !u!4 &1623776688602675888
Transform:
  m_ObjectHideFlags: 0
  m_CorrespondingSourceObject: {fileID: 0}
  m_PrefabInstance: {fileID: 0}
  m_PrefabAsset: {fileID: 0}
  m_GameObject: {fileID: 528450597540202528}
  m_LocalRotation: {x: -0, y: -0, z: -0, w: 1}
  m_LocalPosition: {x: 0, y: 0, z: 0}
  m_LocalScale: {x: 1, y: 1, z: 1}
  m_Children:
  - {fileID: 8410326371941950022}
  m_Father: {fileID: 0}
  m_RootOrder: 0
  m_LocalEulerAnglesHint: {x: 0, y: 0, z: 0}
--- !u!1001 &4803916542413450270
PrefabInstance:
  m_ObjectHideFlags: 0
  serializedVersion: 2
  m_Modification:
    m_TransformParent: {fileID: 8410326371941950022}
    m_Modifications:
    - target: {fileID: 100000, guid: d3d2999b099d47848aacf5c60c2b7e64, type: 3}
      propertyPath: m_Name
      value: fi_vil_food_cheese05
      objectReference: {fileID: 0}
    - target: {fileID: 400000, guid: d3d2999b099d47848aacf5c60c2b7e64, type: 3}
      propertyPath: m_RootOrder
      value: 0
      objectReference: {fileID: 0}
    - target: {fileID: 400000, guid: d3d2999b099d47848aacf5c60c2b7e64, type: 3}
      propertyPath: m_LocalScale.x
      value: 1.5000002
      objectReference: {fileID: 0}
    - target: {fileID: 400000, guid: d3d2999b099d47848aacf5c60c2b7e64, type: 3}
      propertyPath: m_LocalScale.y
      value: 0.50000006
      objectReference: {fileID: 0}
    - target: {fileID: 400000, guid: d3d2999b099d47848aacf5c60c2b7e64, type: 3}
      propertyPath: m_LocalScale.z
      value: 1.5000004
      objectReference: {fileID: 0}
    - target: {fileID: 400000, guid: d3d2999b099d47848aacf5c60c2b7e64, type: 3}
      propertyPath: m_LocalPosition.x
      value: 0.18770388
      objectReference: {fileID: 0}
    - target: {fileID: 400000, guid: d3d2999b099d47848aacf5c60c2b7e64, type: 3}
      propertyPath: m_LocalPosition.y
      value: 2.328
      objectReference: {fileID: 0}
    - target: {fileID: 400000, guid: d3d2999b099d47848aacf5c60c2b7e64, type: 3}
      propertyPath: m_LocalPosition.z
      value: 0.0026726723
      objectReference: {fileID: 0}
    - target: {fileID: 400000, guid: d3d2999b099d47848aacf5c60c2b7e64, type: 3}
      propertyPath: m_LocalRotation.w
      value: 0.49999973
      objectReference: {fileID: 0}
    - target: {fileID: 400000, guid: d3d2999b099d47848aacf5c60c2b7e64, type: 3}
      propertyPath: m_LocalRotation.x
      value: -0.49999982
      objectReference: {fileID: 0}
    - target: {fileID: 400000, guid: d3d2999b099d47848aacf5c60c2b7e64, type: 3}
      propertyPath: m_LocalRotation.y
      value: 0.4999999
      objectReference: {fileID: 0}
    - target: {fileID: 400000, guid: d3d2999b099d47848aacf5c60c2b7e64, type: 3}
      propertyPath: m_LocalRotation.z
      value: -0.50000054
      objectReference: {fileID: 0}
    - target: {fileID: 400000, guid: d3d2999b099d47848aacf5c60c2b7e64, type: 3}
      propertyPath: m_LocalEulerAnglesHint.x
      value: 0
      objectReference: {fileID: 0}
    - target: {fileID: 400000, guid: d3d2999b099d47848aacf5c60c2b7e64, type: 3}
      propertyPath: m_LocalEulerAnglesHint.y
      value: 90.00001
      objectReference: {fileID: 0}
    - target: {fileID: 400000, guid: d3d2999b099d47848aacf5c60c2b7e64, type: 3}
      propertyPath: m_LocalEulerAnglesHint.z
      value: -90.00001
      objectReference: {fileID: 0}
    m_RemovedComponents: []
  m_SourcePrefab: {fileID: 100100000, guid: d3d2999b099d47848aacf5c60c2b7e64, type: 3}
--- !u!1001 &8410326371942086854
PrefabInstance:
  m_ObjectHideFlags: 0
  serializedVersion: 2
  m_Modification:
    m_TransformParent: {fileID: 1623776688602675888}
    m_Modifications:
    - target: {fileID: 100000, guid: 568d08f055e1a1c469ad9e22dc7f7276, type: 3}
      propertyPath: m_Name
      value: fi_vil_signplate03 (2)
      objectReference: {fileID: 0}
    - target: {fileID: 400000, guid: 568d08f055e1a1c469ad9e22dc7f7276, type: 3}
      propertyPath: m_RootOrder
      value: 0
      objectReference: {fileID: 0}
    - target: {fileID: 400000, guid: 568d08f055e1a1c469ad9e22dc7f7276, type: 3}
      propertyPath: m_LocalPosition.x
      value: 0
      objectReference: {fileID: 0}
    - target: {fileID: 400000, guid: 568d08f055e1a1c469ad9e22dc7f7276, type: 3}
      propertyPath: m_LocalPosition.y
      value: 0
      objectReference: {fileID: 0}
    - target: {fileID: 400000, guid: 568d08f055e1a1c469ad9e22dc7f7276, type: 3}
      propertyPath: m_LocalPosition.z
      value: 0
      objectReference: {fileID: 0}
    - target: {fileID: 400000, guid: 568d08f055e1a1c469ad9e22dc7f7276, type: 3}
      propertyPath: m_LocalRotation.w
      value: 1
      objectReference: {fileID: 0}
    - target: {fileID: 400000, guid: 568d08f055e1a1c469ad9e22dc7f7276, type: 3}
      propertyPath: m_LocalRotation.x
      value: 0
      objectReference: {fileID: 0}
    - target: {fileID: 400000, guid: 568d08f055e1a1c469ad9e22dc7f7276, type: 3}
      propertyPath: m_LocalRotation.y
      value: 0
      objectReference: {fileID: 0}
    - target: {fileID: 400000, guid: 568d08f055e1a1c469ad9e22dc7f7276, type: 3}
      propertyPath: m_LocalRotation.z
      value: 0
      objectReference: {fileID: 0}
    - target: {fileID: 400000, guid: 568d08f055e1a1c469ad9e22dc7f7276, type: 3}
      propertyPath: m_LocalEulerAnglesHint.x
      value: 0
      objectReference: {fileID: 0}
    - target: {fileID: 400000, guid: 568d08f055e1a1c469ad9e22dc7f7276, type: 3}
      propertyPath: m_LocalEulerAnglesHint.y
      value: 0
      objectReference: {fileID: 0}
    - target: {fileID: 400000, guid: 568d08f055e1a1c469ad9e22dc7f7276, type: 3}
      propertyPath: m_LocalEulerAnglesHint.z
      value: 0
      objectReference: {fileID: 0}
    m_RemovedComponents: []
  m_SourcePrefab: {fileID: 100100000, guid: 568d08f055e1a1c469ad9e22dc7f7276, type: 3}
--- !u!4 &8410326371941950022 stripped
Transform:
  m_CorrespondingSourceObject: {fileID: 400000, guid: 568d08f055e1a1c469ad9e22dc7f7276,
    type: 3}
  m_PrefabInstance: {fileID: 8410326371942086854}
  m_PrefabAsset: {fileID: 0}
