%YAML 1.1
%TAG !u! tag:unity3d.com,2011:
--- !u!1 &501660678979595197
GameObject:
  m_ObjectHideFlags: 0
  m_CorrespondingSourceObject: {fileID: 0}
  m_PrefabInstance: {fileID: 0}
  m_PrefabAsset: {fileID: 0}
  serializedVersion: 6
  m_Component:
  - component: {fileID: 990107018157912327}
  m_Layer: 0
  m_Name: Painting_portrait9
  m_TagString: Untagged
  m_Icon: {fileID: 0}
  m_NavMeshLayer: 0
  m_StaticEditorFlags: 0
  m_IsActive: 1
--- !u!4 &990107018157912327
Transform:
  m_ObjectHideFlags: 0
  m_CorrespondingSourceObject: {fileID: 0}
  m_PrefabInstance: {fileID: 0}
  m_PrefabAsset: {fileID: 0}
  m_GameObject: {fileID: 501660678979595197}
  m_LocalRotation: {x: 0.5, y: 0.5, z: -0.5, w: 0.5}
  m_LocalPosition: {x: 0, y: 1.06, z: -0}
  m_LocalScale: {x: 1, y: 1, z: 1}
  m_Children:
  - {fileID: 4866382014493311158}
  m_Father: {fileID: 0}
  m_RootOrder: 0
  m_LocalEulerAnglesHint: {x: 90, y: 90, z: 0}
--- !u!1001 &3883497826979258143
PrefabInstance:
  m_ObjectHideFlags: 0
  serializedVersion: 2
  m_Modification:
    m_TransformParent: {fileID: 4866382014493311158}
    m_Modifications:
    - target: {fileID: 7444375683340765965, guid: ef729b143cce2b744a49e03032085ce2,
        type: 3}
      propertyPath: m_Name
      value: Canvas_P
      objectReference: {fileID: 0}
    - target: {fileID: 7783465427885445559, guid: ef729b143cce2b744a49e03032085ce2,
        type: 3}
      propertyPath: m_RootOrder
      value: 0
      objectReference: {fileID: 0}
    - target: {fileID: 7783465427885445559, guid: ef729b143cce2b744a49e03032085ce2,
        type: 3}
      propertyPath: m_LocalPosition.x
      value: 0
      objectReference: {fileID: 0}
    - target: {fileID: 7783465427885445559, guid: ef729b143cce2b744a49e03032085ce2,
        type: 3}
      propertyPath: m_LocalPosition.y
      value: 0
      objectReference: {fileID: 0}
    - target: {fileID: 7783465427885445559, guid: ef729b143cce2b744a49e03032085ce2,
        type: 3}
      propertyPath: m_LocalPosition.z
      value: 0
      objectReference: {fileID: 0}
    - target: {fileID: 7783465427885445559, guid: ef729b143cce2b744a49e03032085ce2,
        type: 3}
      propertyPath: m_LocalRotation.w
      value: 0
      objectReference: {fileID: 0}
    - target: {fileID: 7783465427885445559, guid: ef729b143cce2b744a49e03032085ce2,
        type: 3}
      propertyPath: m_LocalRotation.x
      value: -0
      objectReference: {fileID: 0}
    - target: {fileID: 7783465427885445559, guid: ef729b143cce2b744a49e03032085ce2,
        type: 3}
      propertyPath: m_LocalRotation.y
      value: -1
      objectReference: {fileID: 0}
    - target: {fileID: 7783465427885445559, guid: ef729b143cce2b744a49e03032085ce2,
        type: 3}
      propertyPath: m_LocalRotation.z
      value: -0
      objectReference: {fileID: 0}
    - target: {fileID: 7783465427885445559, guid: ef729b143cce2b744a49e03032085ce2,
        type: 3}
      propertyPath: m_LocalEulerAnglesHint.x
      value: 0
      objectReference: {fileID: 0}
    - target: {fileID: 7783465427885445559, guid: ef729b143cce2b744a49e03032085ce2,
        type: 3}
      propertyPath: m_LocalEulerAnglesHint.y
      value: 0
      objectReference: {fileID: 0}
    - target: {fileID: 7783465427885445559, guid: ef729b143cce2b744a49e03032085ce2,
        type: 3}
      propertyPath: m_LocalEulerAnglesHint.z
      value: 0
      objectReference: {fileID: 0}
    - target: {fileID: 8957448886586878680, guid: ef729b143cce2b744a49e03032085ce2,
        type: 3}
      propertyPath: m_Materials.Array.data[0]
      value: 
      objectReference: {fileID: 2100000, guid: ff41b8d397a0210469f960d29da5f47e, type: 2}
    m_RemovedComponents: []
  m_SourcePrefab: {fileID: 100100000, guid: ef729b143cce2b744a49e03032085ce2, type: 3}
--- !u!1001 &5635495990952014257
PrefabInstance:
  m_ObjectHideFlags: 0
  serializedVersion: 2
  m_Modification:
    m_TransformParent: {fileID: 990107018157912327}
    m_Modifications:
    - target: {fileID: 501660678979595197, guid: 2b7be153324d1354e89b6517e2a5adee,
        type: 3}
      propertyPath: m_Name
      value: Frame
      objectReference: {fileID: 0}
    - target: {fileID: 990107018157912327, guid: 2b7be153324d1354e89b6517e2a5adee,
        type: 3}
      propertyPath: m_RootOrder
      value: 0
      objectReference: {fileID: 0}
    - target: {fileID: 990107018157912327, guid: 2b7be153324d1354e89b6517e2a5adee,
        type: 3}
      propertyPath: m_LocalPosition.x
      value: 0
      objectReference: {fileID: 0}
    - target: {fileID: 990107018157912327, guid: 2b7be153324d1354e89b6517e2a5adee,
        type: 3}
      propertyPath: m_LocalPosition.y
      value: 0
      objectReference: {fileID: 0}
    - target: {fileID: 990107018157912327, guid: 2b7be153324d1354e89b6517e2a5adee,
        type: 3}
      propertyPath: m_LocalPosition.z
      value: -0
      objectReference: {fileID: 0}
    - target: {fileID: 990107018157912327, guid: 2b7be153324d1354e89b6517e2a5adee,
        type: 3}
      propertyPath: m_LocalRotation.w
      value: 0
      objectReference: {fileID: 0}
    - target: {fileID: 990107018157912327, guid: 2b7be153324d1354e89b6517e2a5adee,
        type: 3}
      propertyPath: m_LocalRotation.x
      value: 0
      objectReference: {fileID: 0}
    - target: {fileID: 990107018157912327, guid: 2b7be153324d1354e89b6517e2a5adee,
        type: 3}
      propertyPath: m_LocalRotation.y
      value: 1
      objectReference: {fileID: 0}
    - target: {fileID: 990107018157912327, guid: 2b7be153324d1354e89b6517e2a5adee,
        type: 3}
      propertyPath: m_LocalRotation.z
      value: 0
      objectReference: {fileID: 0}
    - target: {fileID: 990107018157912327, guid: 2b7be153324d1354e89b6517e2a5adee,
        type: 3}
      propertyPath: m_LocalEulerAnglesHint.x
      value: 0
      objectReference: {fileID: 0}
    - target: {fileID: 990107018157912327, guid: 2b7be153324d1354e89b6517e2a5adee,
        type: 3}
      propertyPath: m_LocalEulerAnglesHint.y
      value: 180
      objectReference: {fileID: 0}
    - target: {fileID: 990107018157912327, guid: 2b7be153324d1354e89b6517e2a5adee,
        type: 3}
      propertyPath: m_LocalEulerAnglesHint.z
      value: 0
      objectReference: {fileID: 0}
    m_RemovedComponents: []
  m_SourcePrefab: {fileID: 100100000, guid: 2b7be153324d1354e89b6517e2a5adee, type: 3}
--- !u!4 &4866382014493311158 stripped
Transform:
  m_CorrespondingSourceObject: {fileID: 990107018157912327, guid: 2b7be153324d1354e89b6517e2a5adee,
    type: 3}
  m_PrefabInstance: {fileID: 5635495990952014257}
  m_PrefabAsset: {fileID: 0}
