%YAML 1.1
%TAG !u! tag:unity3d.com,2011:
--- !u!1 &501660678979595197
GameObject:
  m_ObjectHideFlags: 0
  m_CorrespondingSourceObject: {fileID: 0}
  m_PrefabInstance: {fileID: 0}
  m_PrefabAsset: {fileID: 0}
  serializedVersion: 6
  m_Component:
  - component: {fileID: 990107018157912327}
  m_Layer: 0
  m_Name: Painting_landscape5
  m_TagString: Untagged
  m_Icon: {fileID: 0}
  m_NavMeshLayer: 0
  m_StaticEditorFlags: 0
  m_IsActive: 1
--- !u!4 &990107018157912327
Transform:
  m_ObjectHideFlags: 0
  m_CorrespondingSourceObject: {fileID: 0}
  m_PrefabInstance: {fileID: 0}
  m_PrefabAsset: {fileID: 0}
  m_GameObject: {fileID: 501660678979595197}
  m_LocalRotation: {x: 0.7071068, y: 0.7071068, z: 0, w: 0}
  m_LocalPosition: {x: 0, y: 0.75, z: -0}
  m_LocalScale: {x: 1, y: 1, z: 1}
  m_Children:
  - {fileID: 7213001117366836689}
  m_Father: {fileID: 0}
  m_RootOrder: 0
  m_LocalEulerAnglesHint: {x: 0, y: 180, z: 90}
--- !u!1001 &3991389582565776929
PrefabInstance:
  m_ObjectHideFlags: 0
  serializedVersion: 2
  m_Modification:
    m_TransformParent: {fileID: 7213001117366836689}
    m_Modifications:
    - target: {fileID: 1076944816193683529, guid: 0edcc03626b8d5d469d8fcb82fcfdf11,
        type: 3}
      propertyPath: m_Materials.Array.data[0]
      value: 
      objectReference: {fileID: 2100000, guid: 67aab2853f6a64e409ae831eb9e0d3ad, type: 2}
    - target: {fileID: 1581590209831887260, guid: 0edcc03626b8d5d469d8fcb82fcfdf11,
        type: 3}
      propertyPath: m_Name
      value: Canvas_L
      objectReference: {fileID: 0}
    - target: {fileID: 2213870262111419174, guid: 0edcc03626b8d5d469d8fcb82fcfdf11,
        type: 3}
      propertyPath: m_RootOrder
      value: 0
      objectReference: {fileID: 0}
    - target: {fileID: 2213870262111419174, guid: 0edcc03626b8d5d469d8fcb82fcfdf11,
        type: 3}
      propertyPath: m_LocalScale.x
      value: 0.96000016
      objectReference: {fileID: 0}
    - target: {fileID: 2213870262111419174, guid: 0edcc03626b8d5d469d8fcb82fcfdf11,
        type: 3}
      propertyPath: m_LocalScale.y
      value: 0.96000004
      objectReference: {fileID: 0}
    - target: {fileID: 2213870262111419174, guid: 0edcc03626b8d5d469d8fcb82fcfdf11,
        type: 3}
      propertyPath: m_LocalScale.z
      value: 0.96000016
      objectReference: {fileID: 0}
    - target: {fileID: 2213870262111419174, guid: 0edcc03626b8d5d469d8fcb82fcfdf11,
        type: 3}
      propertyPath: m_LocalPosition.x
      value: 0
      objectReference: {fileID: 0}
    - target: {fileID: 2213870262111419174, guid: 0edcc03626b8d5d469d8fcb82fcfdf11,
        type: 3}
      propertyPath: m_LocalPosition.y
      value: 0
      objectReference: {fileID: 0}
    - target: {fileID: 2213870262111419174, guid: 0edcc03626b8d5d469d8fcb82fcfdf11,
        type: 3}
      propertyPath: m_LocalPosition.z
      value: 0
      objectReference: {fileID: 0}
    - target: {fileID: 2213870262111419174, guid: 0edcc03626b8d5d469d8fcb82fcfdf11,
        type: 3}
      propertyPath: m_LocalRotation.w
      value: -0.7071068
      objectReference: {fileID: 0}
    - target: {fileID: 2213870262111419174, guid: 0edcc03626b8d5d469d8fcb82fcfdf11,
        type: 3}
      propertyPath: m_LocalRotation.x
      value: -0
      objectReference: {fileID: 0}
    - target: {fileID: 2213870262111419174, guid: 0edcc03626b8d5d469d8fcb82fcfdf11,
        type: 3}
      propertyPath: m_LocalRotation.y
      value: -0.7071068
      objectReference: {fileID: 0}
    - target: {fileID: 2213870262111419174, guid: 0edcc03626b8d5d469d8fcb82fcfdf11,
        type: 3}
      propertyPath: m_LocalRotation.z
      value: -0
      objectReference: {fileID: 0}
    - target: {fileID: 2213870262111419174, guid: 0edcc03626b8d5d469d8fcb82fcfdf11,
        type: 3}
      propertyPath: m_LocalEulerAnglesHint.x
      value: 0
      objectReference: {fileID: 0}
    - target: {fileID: 2213870262111419174, guid: 0edcc03626b8d5d469d8fcb82fcfdf11,
        type: 3}
      propertyPath: m_LocalEulerAnglesHint.y
      value: -90
      objectReference: {fileID: 0}
    - target: {fileID: 2213870262111419174, guid: 0edcc03626b8d5d469d8fcb82fcfdf11,
        type: 3}
      propertyPath: m_LocalEulerAnglesHint.z
      value: 0
      objectReference: {fileID: 0}
    m_RemovedComponents: []
  m_SourcePrefab: {fileID: 100100000, guid: 0edcc03626b8d5d469d8fcb82fcfdf11, type: 3}
--- !u!1001 &7612256937988140246
PrefabInstance:
  m_ObjectHideFlags: 0
  serializedVersion: 2
  m_Modification:
    m_TransformParent: {fileID: 990107018157912327}
    m_Modifications:
    - target: {fileID: 501660678979595197, guid: 2b7be153324d1354e89b6517e2a5adee,
        type: 3}
      propertyPath: m_Name
      value: Frame
      objectReference: {fileID: 0}
    - target: {fileID: 990107018157912327, guid: 2b7be153324d1354e89b6517e2a5adee,
        type: 3}
      propertyPath: m_RootOrder
      value: 0
      objectReference: {fileID: 0}
    - target: {fileID: 990107018157912327, guid: 2b7be153324d1354e89b6517e2a5adee,
        type: 3}
      propertyPath: m_LocalPosition.x
      value: 0
      objectReference: {fileID: 0}
    - target: {fileID: 990107018157912327, guid: 2b7be153324d1354e89b6517e2a5adee,
        type: 3}
      propertyPath: m_LocalPosition.y
      value: 0
      objectReference: {fileID: 0}
    - target: {fileID: 990107018157912327, guid: 2b7be153324d1354e89b6517e2a5adee,
        type: 3}
      propertyPath: m_LocalPosition.z
      value: -0
      objectReference: {fileID: 0}
    - target: {fileID: 990107018157912327, guid: 2b7be153324d1354e89b6517e2a5adee,
        type: 3}
      propertyPath: m_LocalRotation.w
      value: 0
      objectReference: {fileID: 0}
    - target: {fileID: 990107018157912327, guid: 2b7be153324d1354e89b6517e2a5adee,
        type: 3}
      propertyPath: m_LocalRotation.x
      value: 0
      objectReference: {fileID: 0}
    - target: {fileID: 990107018157912327, guid: 2b7be153324d1354e89b6517e2a5adee,
        type: 3}
      propertyPath: m_LocalRotation.y
      value: 1
      objectReference: {fileID: 0}
    - target: {fileID: 990107018157912327, guid: 2b7be153324d1354e89b6517e2a5adee,
        type: 3}
      propertyPath: m_LocalRotation.z
      value: 0
      objectReference: {fileID: 0}
    - target: {fileID: 990107018157912327, guid: 2b7be153324d1354e89b6517e2a5adee,
        type: 3}
      propertyPath: m_LocalEulerAnglesHint.x
      value: 0
      objectReference: {fileID: 0}
    - target: {fileID: 990107018157912327, guid: 2b7be153324d1354e89b6517e2a5adee,
        type: 3}
      propertyPath: m_LocalEulerAnglesHint.y
      value: 180
      objectReference: {fileID: 0}
    - target: {fileID: 990107018157912327, guid: 2b7be153324d1354e89b6517e2a5adee,
        type: 3}
      propertyPath: m_LocalEulerAnglesHint.z
      value: 0
      objectReference: {fileID: 0}
    m_RemovedComponents: []
  m_SourcePrefab: {fileID: 100100000, guid: 2b7be153324d1354e89b6517e2a5adee, type: 3}
--- !u!4 &7213001117366836689 stripped
Transform:
  m_CorrespondingSourceObject: {fileID: 990107018157912327, guid: 2b7be153324d1354e89b6517e2a5adee,
    type: 3}
  m_PrefabInstance: {fileID: 7612256937988140246}
  m_PrefabAsset: {fileID: 0}
