%YAML 1.1
%TAG !u! tag:unity3d.com,2011:
--- !u!1 &4534643736940499822
GameObject:
  m_ObjectHideFlags: 0
  m_CorrespondingSourceObject: {fileID: 0}
  m_PrefabInstance: {fileID: 0}
  m_PrefabAsset: {fileID: 0}
  serializedVersion: 6
  m_Component:
  - component: {fileID: 3865666110254320084}
  - component: {fileID: 147001740568725105}
  - component: {fileID: 2733322153060889275}
  m_Layer: 0
  m_Name: PlantPot_15
  m_TagString: Untagged
  m_Icon: {fileID: 0}
  m_NavMeshLayer: 0
  m_StaticEditorFlags: 0
  m_IsActive: 1
--- !u!4 &3865666110254320084
Transform:
  m_ObjectHideFlags: 0
  m_CorrespondingSourceObject: {fileID: 0}
  m_PrefabInstance: {fileID: 0}
  m_PrefabAsset: {fileID: 0}
  m_GameObject: {fileID: 4534643736940499822}
  m_LocalRotation: {x: -0, y: -0, z: -0, w: 1}
  m_LocalPosition: {x: 6.234, y: 3.01, z: 2.17}
  m_LocalScale: {x: 0.006, y: 0.006, z: 0.006}
  m_Children:
  - {fileID: 7580210559909032052}
  m_Father: {fileID: 0}
  m_RootOrder: 0
  m_LocalEulerAnglesHint: {x: 0, y: 0, z: 0}
--- !u!33 &147001740568725105
MeshFilter:
  m_ObjectHideFlags: 0
  m_CorrespondingSourceObject: {fileID: 0}
  m_PrefabInstance: {fileID: 0}
  m_PrefabAsset: {fileID: 0}
  m_GameObject: {fileID: 4534643736940499822}
  m_Mesh: {fileID: -477615619021103376, guid: bb20406018bbb5543b7efda6ee1fac7d, type: 3}
--- !u!23 &2733322153060889275
MeshRenderer:
  m_ObjectHideFlags: 0
  m_CorrespondingSourceObject: {fileID: 0}
  m_PrefabInstance: {fileID: 0}
  m_PrefabAsset: {fileID: 0}
  m_GameObject: {fileID: 4534643736940499822}
  m_Enabled: 1
  m_CastShadows: 1
  m_ReceiveShadows: 1
  m_DynamicOccludee: 1
  m_MotionVectors: 1
  m_LightProbeUsage: 1
  m_ReflectionProbeUsage: 1
  m_RayTracingMode: 2
  m_RenderingLayerMask: 1
  m_RendererPriority: 0
  m_Materials:
  - {fileID: 2100000, guid: 2fb5f580750820c4e83c376f35b62191, type: 2}
  m_StaticBatchInfo:
    firstSubMesh: 0
    subMeshCount: 0
  m_StaticBatchRoot: {fileID: 0}
  m_ProbeAnchor: {fileID: 0}
  m_LightProbeVolumeOverride: {fileID: 0}
  m_ScaleInLightmap: 1
  m_ReceiveGI: 1
  m_PreserveUVs: 0
  m_IgnoreNormalsForChartDetection: 0
  m_ImportantGI: 0
  m_StitchLightmapSeams: 1
  m_SelectedEditorRenderState: 3
  m_MinimumChartSize: 4
  m_AutoUVMaxDistance: 0.5
  m_AutoUVMaxAngle: 89
  m_LightmapParameters: {fileID: 0}
  m_SortingLayerID: 0
  m_SortingLayer: 0
  m_SortingOrder: 0
--- !u!1001 &7354975117480817601
PrefabInstance:
  m_ObjectHideFlags: 0
  serializedVersion: 2
  m_Modification:
    m_TransformParent: {fileID: 3865666110254320084}
    m_Modifications:
    - target: {fileID: 687648514283536645, guid: 27150d80a7559324695974550cdb867a,
        type: 3}
      propertyPath: m_Name
      value: Plants22
      objectReference: {fileID: 0}
    - target: {fileID: 1089958731909497781, guid: 27150d80a7559324695974550cdb867a,
        type: 3}
      propertyPath: m_RootOrder
      value: 0
      objectReference: {fileID: 0}
    - target: {fileID: 1089958731909497781, guid: 27150d80a7559324695974550cdb867a,
        type: 3}
      propertyPath: m_LocalScale.x
      value: 15
      objectReference: {fileID: 0}
    - target: {fileID: 1089958731909497781, guid: 27150d80a7559324695974550cdb867a,
        type: 3}
      propertyPath: m_LocalScale.y
      value: 15
      objectReference: {fileID: 0}
    - target: {fileID: 1089958731909497781, guid: 27150d80a7559324695974550cdb867a,
        type: 3}
      propertyPath: m_LocalScale.z
      value: 15
      objectReference: {fileID: 0}
    - target: {fileID: 1089958731909497781, guid: 27150d80a7559324695974550cdb867a,
        type: 3}
      propertyPath: m_LocalPosition.x
      value: 0.8
      objectReference: {fileID: 0}
    - target: {fileID: 1089958731909497781, guid: 27150d80a7559324695974550cdb867a,
        type: 3}
      propertyPath: m_LocalPosition.y
      value: 16.600014
      objectReference: {fileID: 0}
    - target: {fileID: 1089958731909497781, guid: 27150d80a7559324695974550cdb867a,
        type: 3}
      propertyPath: m_LocalPosition.z
      value: -68.201126
      objectReference: {fileID: 0}
    - target: {fileID: 1089958731909497781, guid: 27150d80a7559324695974550cdb867a,
        type: 3}
      propertyPath: m_LocalRotation.w
      value: -0.86602294
      objectReference: {fileID: 0}
    - target: {fileID: 1089958731909497781, guid: 27150d80a7559324695974550cdb867a,
        type: 3}
      propertyPath: m_LocalRotation.x
      value: -0
      objectReference: {fileID: 0}
    - target: {fileID: 1089958731909497781, guid: 27150d80a7559324695974550cdb867a,
        type: 3}
      propertyPath: m_LocalRotation.y
      value: -0.50000435
      objectReference: {fileID: 0}
    - target: {fileID: 1089958731909497781, guid: 27150d80a7559324695974550cdb867a,
        type: 3}
      propertyPath: m_LocalRotation.z
      value: -0
      objectReference: {fileID: 0}
    - target: {fileID: 1089958731909497781, guid: 27150d80a7559324695974550cdb867a,
        type: 3}
      propertyPath: m_LocalEulerAnglesHint.x
      value: 0
      objectReference: {fileID: 0}
    - target: {fileID: 1089958731909497781, guid: 27150d80a7559324695974550cdb867a,
        type: 3}
      propertyPath: m_LocalEulerAnglesHint.y
      value: -299.999
      objectReference: {fileID: 0}
    - target: {fileID: 1089958731909497781, guid: 27150d80a7559324695974550cdb867a,
        type: 3}
      propertyPath: m_LocalEulerAnglesHint.z
      value: 0
      objectReference: {fileID: 0}
    m_RemovedComponents: []
  m_SourcePrefab: {fileID: 100100000, guid: 27150d80a7559324695974550cdb867a, type: 3}
--- !u!4 &7580210559909032052 stripped
Transform:
  m_CorrespondingSourceObject: {fileID: 1089958731909497781, guid: 27150d80a7559324695974550cdb867a,
    type: 3}
  m_PrefabInstance: {fileID: 7354975117480817601}
  m_PrefabAsset: {fileID: 0}
