%YAML 1.1
%TAG !u! tag:unity3d.com,2011:
--- !u!1 &2745388594892715026
GameObject:
  m_ObjectHideFlags: 0
  m_CorrespondingSourceObject: {fileID: 0}
  m_PrefabInstance: {fileID: 0}
  m_PrefabAsset: {fileID: 0}
  serializedVersion: 6
  m_Component:
  - component: {fileID: 3265748328034168488}
  - component: {fileID: 1944885816484585741}
  - component: {fileID: 4402664535477097927}
  m_Layer: 0
  m_Name: PlantPot_20
  m_TagString: Untagged
  m_Icon: {fileID: 0}
  m_NavMeshLayer: 0
  m_StaticEditorFlags: 0
  m_IsActive: 1
--- !u!4 &3265748328034168488
Transform:
  m_ObjectHideFlags: 0
  m_CorrespondingSourceObject: {fileID: 0}
  m_PrefabInstance: {fileID: 0}
  m_PrefabAsset: {fileID: 0}
  m_GameObject: {fileID: 2745388594892715026}
  m_LocalRotation: {x: -0, y: -0, z: -0, w: 1}
  m_LocalPosition: {x: 6.734, y: 3.01, z: 1.92}
  m_LocalScale: {x: 0.006, y: 0.006, z: 0.006}
  m_Children:
  - {fileID: 5302419517724534946}
  m_Father: {fileID: 0}
  m_RootOrder: 0
  m_LocalEulerAnglesHint: {x: 0, y: 0, z: 0}
--- !u!33 &1944885816484585741
MeshFilter:
  m_ObjectHideFlags: 0
  m_CorrespondingSourceObject: {fileID: 0}
  m_PrefabInstance: {fileID: 0}
  m_PrefabAsset: {fileID: 0}
  m_GameObject: {fileID: 2745388594892715026}
  m_Mesh: {fileID: -477615619021103376, guid: bb20406018bbb5543b7efda6ee1fac7d, type: 3}
--- !u!23 &4402664535477097927
MeshRenderer:
  m_ObjectHideFlags: 0
  m_CorrespondingSourceObject: {fileID: 0}
  m_PrefabInstance: {fileID: 0}
  m_PrefabAsset: {fileID: 0}
  m_GameObject: {fileID: 2745388594892715026}
  m_Enabled: 1
  m_CastShadows: 1
  m_ReceiveShadows: 1
  m_DynamicOccludee: 1
  m_MotionVectors: 1
  m_LightProbeUsage: 1
  m_ReflectionProbeUsage: 1
  m_RayTracingMode: 2
  m_RenderingLayerMask: 1
  m_RendererPriority: 0
  m_Materials:
  - {fileID: 2100000, guid: 2fb5f580750820c4e83c376f35b62191, type: 2}
  m_StaticBatchInfo:
    firstSubMesh: 0
    subMeshCount: 0
  m_StaticBatchRoot: {fileID: 0}
  m_ProbeAnchor: {fileID: 0}
  m_LightProbeVolumeOverride: {fileID: 0}
  m_ScaleInLightmap: 1
  m_ReceiveGI: 1
  m_PreserveUVs: 0
  m_IgnoreNormalsForChartDetection: 0
  m_ImportantGI: 0
  m_StitchLightmapSeams: 1
  m_SelectedEditorRenderState: 3
  m_MinimumChartSize: 4
  m_AutoUVMaxDistance: 0.5
  m_AutoUVMaxAngle: 89
  m_LightmapParameters: {fileID: 0}
  m_SortingLayerID: 0
  m_SortingLayer: 0
  m_SortingOrder: 0
--- !u!1001 &5054747346025695084
PrefabInstance:
  m_ObjectHideFlags: 0
  serializedVersion: 2
  m_Modification:
    m_TransformParent: {fileID: 3265748328034168488}
    m_Modifications:
    - target: {fileID: 1131506983042838478, guid: fe5c97ddc465b244f8723f87fc9846bf,
        type: 3}
      propertyPath: m_RootOrder
      value: 0
      objectReference: {fileID: 0}
    - target: {fileID: 1131506983042838478, guid: fe5c97ddc465b244f8723f87fc9846bf,
        type: 3}
      propertyPath: m_LocalScale.x
      value: 30
      objectReference: {fileID: 0}
    - target: {fileID: 1131506983042838478, guid: fe5c97ddc465b244f8723f87fc9846bf,
        type: 3}
      propertyPath: m_LocalScale.y
      value: 30
      objectReference: {fileID: 0}
    - target: {fileID: 1131506983042838478, guid: fe5c97ddc465b244f8723f87fc9846bf,
        type: 3}
      propertyPath: m_LocalScale.z
      value: 30
      objectReference: {fileID: 0}
    - target: {fileID: 1131506983042838478, guid: fe5c97ddc465b244f8723f87fc9846bf,
        type: 3}
      propertyPath: m_LocalPosition.x
      value: 0.3
      objectReference: {fileID: 0}
    - target: {fileID: 1131506983042838478, guid: fe5c97ddc465b244f8723f87fc9846bf,
        type: 3}
      propertyPath: m_LocalPosition.y
      value: 16.600014
      objectReference: {fileID: 0}
    - target: {fileID: 1131506983042838478, guid: fe5c97ddc465b244f8723f87fc9846bf,
        type: 3}
      propertyPath: m_LocalPosition.z
      value: -68.2
      objectReference: {fileID: 0}
    - target: {fileID: 1131506983042838478, guid: fe5c97ddc465b244f8723f87fc9846bf,
        type: 3}
      propertyPath: m_LocalRotation.w
      value: 1
      objectReference: {fileID: 0}
    - target: {fileID: 1131506983042838478, guid: fe5c97ddc465b244f8723f87fc9846bf,
        type: 3}
      propertyPath: m_LocalRotation.x
      value: -0
      objectReference: {fileID: 0}
    - target: {fileID: 1131506983042838478, guid: fe5c97ddc465b244f8723f87fc9846bf,
        type: 3}
      propertyPath: m_LocalRotation.y
      value: -0
      objectReference: {fileID: 0}
    - target: {fileID: 1131506983042838478, guid: fe5c97ddc465b244f8723f87fc9846bf,
        type: 3}
      propertyPath: m_LocalRotation.z
      value: -0
      objectReference: {fileID: 0}
    - target: {fileID: 1131506983042838478, guid: fe5c97ddc465b244f8723f87fc9846bf,
        type: 3}
      propertyPath: m_LocalEulerAnglesHint.x
      value: 0
      objectReference: {fileID: 0}
    - target: {fileID: 1131506983042838478, guid: fe5c97ddc465b244f8723f87fc9846bf,
        type: 3}
      propertyPath: m_LocalEulerAnglesHint.y
      value: 0
      objectReference: {fileID: 0}
    - target: {fileID: 1131506983042838478, guid: fe5c97ddc465b244f8723f87fc9846bf,
        type: 3}
      propertyPath: m_LocalEulerAnglesHint.z
      value: 0
      objectReference: {fileID: 0}
    - target: {fileID: 6227126266301515078, guid: fe5c97ddc465b244f8723f87fc9846bf,
        type: 3}
      propertyPath: m_Name
      value: Plants31
      objectReference: {fileID: 0}
    m_RemovedComponents: []
  m_SourcePrefab: {fileID: 100100000, guid: fe5c97ddc465b244f8723f87fc9846bf, type: 3}
--- !u!4 &5302419517724534946 stripped
Transform:
  m_CorrespondingSourceObject: {fileID: 1131506983042838478, guid: fe5c97ddc465b244f8723f87fc9846bf,
    type: 3}
  m_PrefabInstance: {fileID: 5054747346025695084}
  m_PrefabAsset: {fileID: 0}
