%YAML 1.1
%TAG !u! tag:unity3d.com,2011:
--- !u!1 &8925163811024733936
GameObject:
  m_ObjectHideFlags: 0
  m_CorrespondingSourceObject: {fileID: 0}
  m_PrefabInstance: {fileID: 0}
  m_PrefabAsset: {fileID: 0}
  serializedVersion: 6
  m_Component:
  - component: {fileID: 8113056188209126474}
  - component: {fileID: 5131999157375095791}
  - component: {fileID: 6979578054572156709}
  m_Layer: 0
  m_Name: PlantPot_9
  m_TagString: Untagged
  m_Icon: {fileID: 0}
  m_NavMeshLayer: 0
  m_StaticEditorFlags: 0
  m_IsActive: 1
--- !u!4 &8113056188209126474
Transform:
  m_ObjectHideFlags: 0
  m_CorrespondingSourceObject: {fileID: 0}
  m_PrefabInstance: {fileID: 0}
  m_PrefabAsset: {fileID: 0}
  m_GameObject: {fileID: 8925163811024733936}
  m_LocalRotation: {x: -0, y: -0, z: -0, w: 1}
  m_LocalPosition: {x: 5.234, y: 3.01, z: 2.42}
  m_LocalScale: {x: 0.006, y: 0.006, z: 0.006}
  m_Children:
  - {fileID: 2068966733619980642}
  m_Father: {fileID: 0}
  m_RootOrder: 0
  m_LocalEulerAnglesHint: {x: 0, y: 0, z: 0}
--- !u!33 &5131999157375095791
MeshFilter:
  m_ObjectHideFlags: 0
  m_CorrespondingSourceObject: {fileID: 0}
  m_PrefabInstance: {fileID: 0}
  m_PrefabAsset: {fileID: 0}
  m_GameObject: {fileID: 8925163811024733936}
  m_Mesh: {fileID: -477615619021103376, guid: bb20406018bbb5543b7efda6ee1fac7d, type: 3}
--- !u!23 &6979578054572156709
MeshRenderer:
  m_ObjectHideFlags: 0
  m_CorrespondingSourceObject: {fileID: 0}
  m_PrefabInstance: {fileID: 0}
  m_PrefabAsset: {fileID: 0}
  m_GameObject: {fileID: 8925163811024733936}
  m_Enabled: 1
  m_CastShadows: 1
  m_ReceiveShadows: 1
  m_DynamicOccludee: 1
  m_MotionVectors: 1
  m_LightProbeUsage: 1
  m_ReflectionProbeUsage: 1
  m_RayTracingMode: 2
  m_RenderingLayerMask: 1
  m_RendererPriority: 0
  m_Materials:
  - {fileID: 2100000, guid: 2fb5f580750820c4e83c376f35b62191, type: 2}
  m_StaticBatchInfo:
    firstSubMesh: 0
    subMeshCount: 0
  m_StaticBatchRoot: {fileID: 0}
  m_ProbeAnchor: {fileID: 0}
  m_LightProbeVolumeOverride: {fileID: 0}
  m_ScaleInLightmap: 1
  m_ReceiveGI: 1
  m_PreserveUVs: 0
  m_IgnoreNormalsForChartDetection: 0
  m_ImportantGI: 0
  m_StitchLightmapSeams: 1
  m_SelectedEditorRenderState: 3
  m_MinimumChartSize: 4
  m_AutoUVMaxDistance: 0.5
  m_AutoUVMaxAngle: 89
  m_LightmapParameters: {fileID: 0}
  m_SortingLayerID: 0
  m_SortingLayer: 0
  m_SortingOrder: 0
--- !u!1001 &722550575022284174
PrefabInstance:
  m_ObjectHideFlags: 0
  serializedVersion: 2
  m_Modification:
    m_TransformParent: {fileID: 8113056188209126474}
    m_Modifications:
    - target: {fileID: 1635213085645075692, guid: 16528bcf99dce0542bc1952919c79c4d,
        type: 3}
      propertyPath: m_RootOrder
      value: 0
      objectReference: {fileID: 0}
    - target: {fileID: 1635213085645075692, guid: 16528bcf99dce0542bc1952919c79c4d,
        type: 3}
      propertyPath: m_LocalScale.x
      value: 8
      objectReference: {fileID: 0}
    - target: {fileID: 1635213085645075692, guid: 16528bcf99dce0542bc1952919c79c4d,
        type: 3}
      propertyPath: m_LocalScale.y
      value: 8
      objectReference: {fileID: 0}
    - target: {fileID: 1635213085645075692, guid: 16528bcf99dce0542bc1952919c79c4d,
        type: 3}
      propertyPath: m_LocalScale.z
      value: 8
      objectReference: {fileID: 0}
    - target: {fileID: 1635213085645075692, guid: 16528bcf99dce0542bc1952919c79c4d,
        type: 3}
      propertyPath: m_LocalPosition.x
      value: 1.9
      objectReference: {fileID: 0}
    - target: {fileID: 1635213085645075692, guid: 16528bcf99dce0542bc1952919c79c4d,
        type: 3}
      propertyPath: m_LocalPosition.y
      value: 17
      objectReference: {fileID: 0}
    - target: {fileID: 1635213085645075692, guid: 16528bcf99dce0542bc1952919c79c4d,
        type: 3}
      propertyPath: m_LocalPosition.z
      value: -65.6
      objectReference: {fileID: 0}
    - target: {fileID: 1635213085645075692, guid: 16528bcf99dce0542bc1952919c79c4d,
        type: 3}
      propertyPath: m_LocalRotation.w
      value: 0.5000014
      objectReference: {fileID: 0}
    - target: {fileID: 1635213085645075692, guid: 16528bcf99dce0542bc1952919c79c4d,
        type: 3}
      propertyPath: m_LocalRotation.x
      value: -0
      objectReference: {fileID: 0}
    - target: {fileID: 1635213085645075692, guid: 16528bcf99dce0542bc1952919c79c4d,
        type: 3}
      propertyPath: m_LocalRotation.y
      value: 0.8660246
      objectReference: {fileID: 0}
    - target: {fileID: 1635213085645075692, guid: 16528bcf99dce0542bc1952919c79c4d,
        type: 3}
      propertyPath: m_LocalRotation.z
      value: -0
      objectReference: {fileID: 0}
    - target: {fileID: 1635213085645075692, guid: 16528bcf99dce0542bc1952919c79c4d,
        type: 3}
      propertyPath: m_LocalEulerAnglesHint.x
      value: 0
      objectReference: {fileID: 0}
    - target: {fileID: 1635213085645075692, guid: 16528bcf99dce0542bc1952919c79c4d,
        type: 3}
      propertyPath: m_LocalEulerAnglesHint.y
      value: 120.00001
      objectReference: {fileID: 0}
    - target: {fileID: 1635213085645075692, guid: 16528bcf99dce0542bc1952919c79c4d,
        type: 3}
      propertyPath: m_LocalEulerAnglesHint.z
      value: 0
      objectReference: {fileID: 0}
    - target: {fileID: 3140583973752868840, guid: 16528bcf99dce0542bc1952919c79c4d,
        type: 3}
      propertyPath: m_Name
      value: Plants13
      objectReference: {fileID: 0}
    m_RemovedComponents: []
  m_SourcePrefab: {fileID: 100100000, guid: 16528bcf99dce0542bc1952919c79c4d, type: 3}
--- !u!4 &2068966733619980642 stripped
Transform:
  m_CorrespondingSourceObject: {fileID: 1635213085645075692, guid: 16528bcf99dce0542bc1952919c79c4d,
    type: 3}
  m_PrefabInstance: {fileID: 722550575022284174}
  m_PrefabAsset: {fileID: 0}
